[gd_scene load_steps=3 format=3 uid="uid://c2xhk45g3k8gk"]

[ext_resource type="Texture2D" uid="uid://c673b5ccjpoho" path="res://sprites/Platformground.png" id="1_851fr"]

[sub_resource type="RectangleShape2D" id="RectangleShape2D_3tuo2"]
size = Vector2(782, 84)

[node name="StaticBody2D" type="StaticBody2D"]

[node name="Sprite2D" type="Sprite2D" parent="."]
position = Vector2(-71, -18)
texture = ExtResource("1_851fr")
centered = false

[node name="CollisionShape2D" type="CollisionShape2D" parent="."]
position = Vector2(357, 305)
shape = SubResource("RectangleShape2D_3tuo2")
